Grammatik för visualiseringar
…
Nu ska vi praktisera den här grammatiken!

Vi utgår från data som kommer från Hemnet!

```r
library(janitor)
hem <- read_csv("hemnet/FilteredApData.csv") %>% 
  clean_names() %>% 
  mutate(date = as.Date(as.character(date), format = "%Y%m%d"))

hem
```

```
## # A tibble: 14,171 x 11
##    date       adress  size rooms broker  rent  price nearby_po_is latitude
##    <date>     <chr>  <dbl> <dbl> <chr>  <dbl>  <dbl>        <dbl>    <dbl>
##  1 2019-12-06 Karls…  25       1 Svens…  1198 2.70e6          523     59.3
##  2 2019-12-06 Slipg…  25       1 BOSTH…  1521 2.82e6          378     59.3
##  3 2019-12-05 Flemi…  22.2     1 Bosta…   884 2.66e6          732     59.3
##  4 2019-12-05 Arvid…  24       1 Svens…  1614 1.61e6           31     59.3
##  5 2019-12-04 Vitta…  23       1 Husma…  1631 1.45e6           35     59.4
##  6 2019-12-04 Syssl…  24       1 Mäkla…  1230 2.58e6          470     59.3
##  7 2019-12-04 Högal…  23.5     1 BOSTH…  1243 2.80e6          462     59.3
##  8 2019-12-03 Nypon…  22       1 Fasti…  1051 2.35e6          134     59.3
##  9 2019-12-03 Sickl…  25       1 ERA E…  1602 2.12e6           22     59.3
## 10 2019-12-03 Maria…  25       1 BOSTH…  1205 2.76e6         1300     59.3
## # … with 14,161 more rows, and 2 more variables: longitude <dbl>,
## #   price_per_kvm <dbl>
```
…
